<?xml version="1.0" encoding="iso-8859-1"?>
<!-- Generator: Adobe Illustrator 19.0.0, SVG Export Plug-In . SVG Version: 6.00 Build 0)  -->
<svg version="1.1" id="Capa_1" xmlns="http://www.w3.org/2000/svg" xmlns:xlink="http://www.w3.org/1999/xlink" x="0px" y="0px"
	 viewBox="0 0 512 512" style="enable-background:new 0 0 512 512;" xml:space="preserve">
<path style="fill:#5BD3A2;" d="M512,256c0,26.54-4.044,52.14-11.536,76.215c-2.361,7.586-5.068,15.026-8.108,22.288
	c-0.575,1.4-1.17,2.8-1.787,4.18c-3.344,7.638-7.043,15.067-11.086,22.288c-7.032,12.528-15.078,24.409-24.043,35.527
	c-3.626,4.514-7.419,8.913-11.358,13.166c-2.769,2.999-5.611,5.925-8.516,8.777c-6.949,6.855-14.273,13.291-21.964,19.299
	c-7.032,5.507-14.357,10.648-21.943,15.402c-16.018,10.031-33.238,18.338-51.378,24.66c-7.168,2.497-14.493,4.692-21.943,6.552
	c-16.541,4.138-33.729,6.677-51.367,7.419c-3.636,0.157-7.293,0.23-10.971,0.23c-3.678,0-7.335-0.073-10.971-0.24
	c-17.648-0.731-34.837-3.26-51.378-7.408c-7.45-1.86-14.764-4.054-21.943-6.552c-18.139-6.322-35.349-14.629-51.378-24.67
	c-7.586-4.744-14.911-9.885-21.943-15.391c-7.69-6.019-15.026-12.466-21.974-19.299c-7.032-6.928-13.667-14.252-19.864-21.943
	c-14.493-17.983-26.593-37.961-35.84-59.465c-3.72-8.641-6.98-17.533-9.738-26.645C3.835,306.845,0,281.872,0,256
	c0-10.041,0.575-19.937,1.703-29.675C16.415,98.92,124.656,0,256,0c74.365,0,141.322,31.702,188.082,82.338
	c18.568,20.093,33.949,43.165,45.349,68.409c3.281,7.262,6.228,14.691,8.829,22.288c5.82,17.021,9.906,34.858,12.037,53.29
	C511.425,236.063,512,245.969,512,256z"/>
<path style="fill:#34ABE0;" d="M510.297,226.325H1.703C16.415,98.92,124.656,0,256,0c12.058,0,23.928,0.836,35.547,2.456
	c55.233,7.67,104.835,32.956,142.921,70.029c3.291,3.187,6.499,6.478,9.613,9.853c18.568,20.093,33.949,43.165,45.349,68.409
	c3.281,7.262,6.228,14.691,8.829,22.288C504.08,190.056,508.165,207.893,510.297,226.325z"/>
<g>
	<path style="fill:#78CAEF;" d="M434.469,72.485c-0.815,0.157-1.661,0.24-2.529,0.24h-1.306c-3.689,0-7.011,1.494-9.425,3.897
		c-2.414,2.414-3.897,5.747-3.897,9.425c0,7.356-5.966,13.322-13.333,13.322H212.104c-3.678,0-7.011-1.494-9.415-3.897
		c-2.414-2.414-3.908-5.747-3.908-9.425c0-7.356,5.966-13.322,13.322-13.322h40.5c3.689,0,7.011-1.494,9.425-3.897
		c2.414-2.414,3.897-5.747,3.897-9.425c0-7.367-5.956-13.322-13.322-13.322h-11.295c-3.678,0-7.011-1.494-9.425-3.897
		c-2.403-2.414-3.897-5.747-3.897-9.425c0-7.367,5.956-13.333,13.322-13.333h37.418c3.678,0,7.011-1.484,9.415-3.897
		c2.414-2.414,3.908-5.736,3.908-9.425c0-1.264-0.178-2.487-0.502-3.647C346.781,10.125,396.382,35.412,434.469,72.485z"/>
	<path style="fill:#78CAEF;" d="M185.67,150.9L185.67,150.9c0-7.358-5.965-13.324-13.324-13.324H60.073
		c-7.358,0-13.322,5.965-13.322,13.324l0,0c0,7.358,5.965,13.324,13.322,13.324H96.39c7.358,0,13.323,5.965,13.323,13.324l0,0
		c0,7.358-5.965,13.324-13.323,13.324h-3.702c-7.358,0-13.322,5.965-13.322,13.322l0,0c0,7.358,5.965,13.324,13.322,13.324h107.605
		c7.358,0,13.322-5.965,13.322-13.324l0,0c0-7.358,5.965-13.322,13.324-13.322h3.702c7.358,0,13.323-5.965,13.323-13.324l0,0
		c0-7.358-5.965-13.324-13.323-13.324h-31.648C191.634,164.223,185.67,158.258,185.67,150.9z"/>
</g>
<g>
	<path style="fill:#4BC999;" d="M229.021,370.354c0,7.356-5.966,13.322-13.322,13.322H89.13c-3.678,0-7.011-1.494-9.425-3.908
		c-2.403-2.403-3.897-5.736-3.897-9.415c0-7.356-5.966-13.322-13.322-13.322H20.71c-3.72-8.641-6.98-17.533-9.738-26.645h30.783
		c3.678,0,7.011-1.494,9.425-3.908c2.403-2.403,3.897-5.736,3.897-9.415c0-7.356,5.966-13.322,13.322-13.322h126.568
		c3.678,0,7.011,1.494,9.415,3.908c2.414,2.403,3.908,5.736,3.908,9.415c0,7.356-5.966,13.322-13.322,13.322h-42.935
		c-7.356,0-13.322,5.966-13.322,13.322c0,7.356,5.966,13.322,13.322,13.322h63.666c3.678,0,7.011,1.494,9.415,3.908
		C227.527,363.342,229.021,366.676,229.021,370.354z"/>
	<path style="fill:#4BC999;" d="M366.686,237.771v-0.001c0-7.358-5.964-13.322-13.322-13.322h-126.57
		c-7.358,0-13.322,5.964-13.322,13.322v0.001c0,7.358,5.964,13.322,13.322,13.322h21.094c7.358,0,13.322,5.964,13.322,13.322v0.001
		c0,7.358,5.964,13.322,13.322,13.322h105.475c7.358,0,13.322-5.964,13.322-13.322v-0.001c0-7.358-5.964-13.322-13.322-13.322l0,0
		C372.651,251.093,366.686,245.129,366.686,237.771z"/>
	<path style="fill:#4BC999;" d="M446.618,356.884v-0.001c0-7.358-5.964-13.322-13.322-13.322H306.725
		c-7.358,0-13.322,5.964-13.322,13.322v0.001c0,7.358,5.964,13.322,13.322,13.322h21.094c7.358,0,13.322,5.964,13.322,13.322v0.001
		c0,7.358,5.964,13.322,13.322,13.322h105.475c7.358,0,13.322-5.964,13.322-13.322v-0.001c0-7.358-5.964-13.322-13.322-13.322l0,0
		C452.582,370.206,446.618,364.241,446.618,356.884z"/>
</g>
<path style="fill:#C69A6A;" d="M135.961,325.244h-35.527v-155.69c0-9.811,7.953-17.763,17.763-17.763l0,0
	c9.811,0,17.763,7.953,17.763,17.763V325.244z"/>
<path style="fill:#41B787;" d="M154.676,5.224H81.719c-25.648,0-46.44,20.792-46.44,46.44v115.197
	c0,25.648,20.792,46.44,46.44,46.44h72.957c25.648,0,46.44-20.792,46.44-46.441V51.665C201.117,26.017,180.324,5.224,154.676,5.224z
	"/>
<path style="fill:#4BC999;" d="M150.223,176.346H104.68c-16.566,0-29.996-13.43-29.996-29.996V46.995
	c0-16.566,13.43-29.996,29.996-29.996h45.543c16.566,0,29.996,13.43,29.996,29.996v99.355
	C180.219,162.916,166.789,176.346,150.223,176.346z"/>
<g>
	<rect x="100.436" y="213.305" style="fill:#B58657;" width="18.808" height="111.94"/>
	<rect x="106.026" y="213.305" style="fill:#B58657;" width="29.93" height="15.809"/>
</g>
<path style="fill:#5BD3A2;" d="M150.107,97.979h-12.918c-3.935,0-7.124-3.19-7.124-7.124V54.948c0-3.935,3.19-7.124,7.124-7.124
	h12.918c3.935,0,7.124,3.19,7.124,7.124v35.906C157.231,94.789,154.041,97.979,150.107,97.979z"/>
<path style="fill:#41B787;" d="M138.054,136.108H95.966c-6.732,0-12.191-5.458-12.191-12.191l0,0
	c0-6.732,5.457-12.191,12.191-12.191H108.1c6.712,0,12.47-5.251,12.593-11.962c0.125-6.837-5.38-12.419-12.189-12.419H71.933v24.381
	h-24.73c-6.732,0-12.191,5.458-12.191,12.191l0,0c0,6.732,5.458,12.191,12.191,12.191h24.73v24.381h66.526
	c6.809,0,12.313-5.582,12.189-12.419C150.524,141.359,144.765,136.108,138.054,136.108z"/>
<path style="fill:#C69A6A;" d="M411.831,325.244h-35.527v-155.69c0-9.811,7.953-17.763,17.763-17.763l0,0
	c9.811,0,17.763,7.953,17.763,17.763V325.244z"/>
<path style="fill:#41B787;" d="M430.546,5.224h-72.957c-25.648,0-46.44,20.792-46.44,46.44v115.197
	c0,25.648,20.792,46.44,46.44,46.44h72.957c25.648,0,46.44-20.792,46.44-46.441V51.665C476.986,26.017,456.195,5.224,430.546,5.224z
	"/>
<path style="fill:#4BC999;" d="M426.093,176.346H380.55c-16.566,0-29.996-13.43-29.996-29.996V46.995
	c0-16.566,13.43-29.996,29.996-29.996h45.543c16.566,0,29.996,13.43,29.996,29.996v99.355
	C456.089,162.916,442.66,176.346,426.093,176.346z"/>
<g>
	<rect x="376.299" y="213.305" style="fill:#B58657;" width="18.808" height="111.94"/>
	<rect x="381.9" y="213.305" style="fill:#B58657;" width="29.93" height="15.809"/>
</g>
<path style="fill:#5BD3A2;" d="M425.977,97.979h-12.918c-3.935,0-7.124-3.19-7.124-7.124V54.948c0-3.935,3.19-7.124,7.124-7.124
	h12.918c3.935,0,7.124,3.19,7.124,7.124v35.906C433.101,94.789,429.912,97.979,425.977,97.979z"/>
<path style="fill:#41B787;" d="M413.924,136.108h-42.088c-6.732,0-12.191-5.458-12.191-12.191l0,0
	c0-6.732,5.457-12.191,12.191-12.191h12.134c6.712,0,12.47-5.251,12.593-11.962c0.125-6.837-5.38-12.419-12.189-12.419h-36.571
	v24.381h-24.73c-6.732,0-12.191,5.458-12.191,12.191l0,0c0,6.732,5.457,12.191,12.191,12.191h24.73v24.381h66.525
	c6.809,0,12.313-5.582,12.189-12.419C426.394,141.359,420.636,136.108,413.924,136.108z"/>
<g>
	<path style="fill:#5C5E70;" d="M266.971,125.67v386.1c-3.636,0.157-7.293,0.23-10.971,0.23c-3.678,0-7.335-0.073-10.971-0.24
		V125.67C245.029,125.67,266.971,125.67,266.971,125.67z"/>
	<path style="fill:#5C5E70;" d="M340.281,150.403V497.8c-7.168,2.497-14.493,4.692-21.943,6.552V150.403H340.281z"/>
	<path style="fill:#5C5E70;" d="M413.602,150.403v307.336c-7.032,5.507-14.357,10.648-21.943,15.402V150.403H413.602z"/>
	<rect x="42.835" y="209.607" style="fill:#5C5E70;" width="426.329" height="21.943"/>
	<path style="fill:#5C5E70;" d="M455.44,416.496c-3.626,4.514-7.419,8.913-11.358,13.166c-2.769,2.999-5.611,5.925-8.516,8.777
		H76.413c-7.032-6.928-13.667-14.252-19.864-21.943H455.44z"/>
	<path style="fill:#5C5E70;" d="M193.651,150.403v353.949c-7.45-1.86-14.764-4.054-21.943-6.552V150.403H193.651z"/>
	<path style="fill:#5C5E70;" d="M120.33,150.403V473.13c-7.586-4.744-14.911-9.885-21.943-15.391V150.403H120.33z"/>
</g>
<path style="fill:#F4A14E;" d="M512,64.878V256c0,26.54-4.044,52.14-11.536,76.215c-2.361,7.586-5.068,15.026-8.108,22.288
	c-0.575,1.4-1.17,2.8-1.787,4.18c-3.344,7.638-7.043,15.067-11.086,22.288c-9.885,17.627-21.786,33.959-35.401,48.692V64.878H512z"
	/>
<rect x="444.082" y="64.878" style="fill:#E28D40;" width="67.915" height="18.996"/>
<rect x="404.375" y="24.663" style="fill:#E8DBC4;" width="107.624" height="40.212"/>
<g>
	<path style="fill:#E28D40;" d="M478.351,123.232h33.646V100.94h-33.646c-1.999,0-3.62,1.621-3.62,3.62v15.053
		C474.732,121.611,476.352,123.232,478.351,123.232z"/>
	<path style="fill:#E28D40;" d="M490.569,358.682c-3.344,7.638-7.043,15.067-11.086,22.288h-1.128c-2.006,0-3.626-1.62-3.626-3.615
		v-15.057c0-1.996,1.62-3.615,3.626-3.615H490.569z"/>
	<path style="fill:#E28D40;" d="M477.727,226.328h-33.646v22.291h33.646c1.999,0,3.62-1.621,3.62-3.62v-15.053
		C481.346,227.949,479.726,226.328,477.727,226.328z"/>
	<path style="fill:#E28D40;" d="M465.669,257.118v15.047c0,2.006-1.62,3.626-3.615,3.626h-17.972v-22.298h17.972
		C464.05,253.492,465.669,255.112,465.669,257.118z"/>
	<path style="fill:#E28D40;" d="M488.8,173.038h23.197v-22.291H488.8c-1.999,0-3.62,1.621-3.62,3.62v15.053
		C485.181,171.419,486.801,173.038,488.8,173.038z"/>
	<path style="fill:#E28D40;" d="M500.464,332.215c-2.361,7.586-5.068,15.026-8.108,22.288h-3.553c-2.006,0-3.626-1.62-3.626-3.615
		V335.83c0-1.996,1.62-3.615,3.626-3.615H500.464z"/>
</g>
<path style="fill:#F4A14E;" d="M0,64.878V256c0,26.54,4.044,52.14,11.536,76.215c2.361,7.586,5.068,15.026,8.108,22.288
	c0.575,1.4,1.17,2.8,1.787,4.18c3.344,7.638,7.043,15.067,11.086,22.288c9.885,17.627,21.786,33.959,35.401,48.692V64.878H0z"/>
<rect x="0.003" y="64.878" style="fill:#E28D40;" width="67.915" height="18.996"/>
<rect x="0.003" y="24.663" style="fill:#E8DBC4;" width="107.624" height="40.212"/>
<g>
	<path style="fill:#E28D40;" d="M33.649,144.13H0.003v-22.291h33.646c1.999,0,3.62,1.621,3.62,3.62v15.053
		C37.268,142.509,35.648,144.13,33.649,144.13z"/>
	<path style="fill:#E28D40;" d="M21.431,358.682c3.344,7.638,7.043,15.067,11.086,22.288h1.128c2.006,0,3.626-1.62,3.626-3.615
		v-15.057c0-1.996-1.62-3.615-3.626-3.615H21.431z"/>
	<path style="fill:#E28D40;" d="M34.273,226.328h33.646v22.291H34.273c-1.999,0-3.62-1.621-3.62-3.62v-15.053
		C30.654,227.949,32.274,226.328,34.273,226.328z"/>
	<path style="fill:#E28D40;" d="M46.331,257.118v15.047c0,2.006,1.62,3.626,3.615,3.626h17.972v-22.298H49.946
		C47.95,253.492,46.331,255.112,46.331,257.118z"/>
	<path style="fill:#E28D40;" d="M23.2,173.038H0.003v-22.291H23.2c1.999,0,3.62,1.621,3.62,3.62v15.053
		C26.819,171.419,25.199,173.038,23.2,173.038z"/>
	<path style="fill:#E28D40;" d="M11.536,332.215c2.361,7.586,5.068,15.026,8.108,22.288h3.553c2.006,0,3.626-1.62,3.626-3.615
		V335.83c0-1.996-1.62-3.615-3.626-3.615H11.536z"/>
</g>
<g>
	<path style="fill:#F9EED7;" d="M502.917,44.77h-52.566c-1.835,0-3.323-1.488-3.323-3.323v-7.54c0-1.835,1.488-3.323,3.323-3.323
		h52.566c1.835,0,3.323,1.488,3.323,3.323v7.54C506.239,43.282,504.751,44.77,502.917,44.77z"/>
	<path style="fill:#F9EED7;" d="M92.621,44.77H40.054c-1.835,0-3.323-1.488-3.323-3.323v-7.54c0-1.835,1.488-3.323,3.323-3.323
		H92.62c1.835,0,3.323,1.488,3.323,3.323v7.54C95.943,43.282,94.456,44.77,92.621,44.77z"/>
</g>
<circle style="fill:#797B89;" cx="256" cy="220.578" r="39.182"/>
<circle style="fill:#FFD15C;" cx="256" cy="220.578" r="27.705"/>
<g>
</g>
<g>
</g>
<g>
</g>
<g>
</g>
<g>
</g>
<g>
</g>
<g>
</g>
<g>
</g>
<g>
</g>
<g>
</g>
<g>
</g>
<g>
</g>
<g>
</g>
<g>
</g>
<g>
</g>
</svg>
