<?xml version="1.0" encoding="UTF-8" standalone="no"?>
<svg
   xmlns:dc="http://purl.org/dc/elements/1.1/"
   xmlns:cc="http://creativecommons.org/ns#"
   xmlns:rdf="http://www.w3.org/1999/02/22-rdf-syntax-ns#"
   xmlns:svg="http://www.w3.org/2000/svg"
   xmlns="http://www.w3.org/2000/svg"
   xmlns:sodipodi="http://sodipodi.sourceforge.net/DTD/sodipodi-0.dtd"
   xmlns:inkscape="http://www.inkscape.org/namespaces/inkscape"
   role="img"
   viewBox="3.38 1.38 264.00 409.50"
   version="1.1"
   id="svg4046"
   sodipodi:docname="o-auth2-proxy-white.svg"
   inkscape:version="0.92.4 (5da689c313, 2019-01-14)">
  <metadata
     id="metadata4050">
    <rdf:RDF>
      <cc:Work
         rdf:about="">
        <dc:format>image/svg+xml</dc:format>
        <dc:type
           rdf:resource="http://purl.org/dc/dcmitype/StillImage" />
        <dc:title>OAuth2 Proxy logo</dc:title>
      </cc:Work>
    </rdf:RDF>
  </metadata>
  <sodipodi:namedview
     pagecolor="#ffffff"
     bordercolor="#666666"
     borderopacity="1"
     objecttolerance="10"
     gridtolerance="10"
     guidetolerance="10"
     inkscape:pageopacity="0"
     inkscape:pageshadow="2"
     inkscape:window-width="2461"
     inkscape:window-height="1370"
     id="namedview4048"
     showgrid="false"
     inkscape:zoom="2.3052503"
     inkscape:cx="130.9731"
     inkscape:cy="222.10169"
     inkscape:window-x="0"
     inkscape:window-y="0"
     inkscape:window-maximized="0"
     inkscape:current-layer="svg4046" />
  <title
     id="title4026">OAuth2 Proxy logo</title>
  <defs
     id="defs4030">
    <style
       id="style4028">.cls-1{fill:#06ed94}</style>
  </defs>
  <path
     d="M135.487 257.62a124.151 124.151 0 1 1 124.152-124.15 124.292 124.292 0 0 1-124.152 124.15zm0-239.514a115.364 115.364 0 1 0 115.365 115.363A115.494 115.494 0 0 0 135.487 18.106z"
     class="cls-1"
     id="path4032"
     style="fill:#ffffff" />
  <path
     fill="#059b61"
     d="M157.133 68.125l-3.583 13.394 28.808 23.643 27.075-3.338-52.3-33.699z"
     id="path4038"
     style="fill:#e6e6e6" />
  <path
     d="M227.257 124.546V99.678l-39.328-33.462-30.796 1.909 37.549 30.159H43.718v27.942l183.539-1.68z"
     class="cls-1"
     id="path4040"
     style="fill:#ffffff" />
  <path
     fill="#1957ba"
     d="M113.841 193.161l3.583-13.394-29.661-24.837-26.222 4.533 52.3 33.698z"
     id="path4042"
     style="fill:#b3b3b3" />
  <path
     fill="#6ca8ff"
     d="M43.718 136.74v24.868l39.327 33.463 30.796-1.91-37.549-30.159h150.965V135.06l-183.539 1.68z"
     id="path4044"
     style="fill:#f2f2f2" />
</svg>
