<?xml version="1.0" encoding="UTF-8" standalone="no"?>
<!-- Created with Inkscape (http://www.inkscape.org/) -->

<svg
   xmlns:dc="http://purl.org/dc/elements/1.1/"
   xmlns:cc="http://creativecommons.org/ns#"
   xmlns:rdf="http://www.w3.org/1999/02/22-rdf-syntax-ns#"
   xmlns:svg="http://www.w3.org/2000/svg"
   xmlns="http://www.w3.org/2000/svg"
   xmlns:sodipodi="http://sodipodi.sourceforge.net/DTD/sodipodi-0.dtd"
   xmlns:inkscape="http://www.inkscape.org/namespaces/inkscape"
   width="180.64732mm"
   height="112.6104mm"
   viewBox="0 0 180.64732 112.6104"
   version="1.1"
   id="svg4802"
   inkscape:version="0.92.4 (5da689c313, 2019-01-14)"
   sodipodi:docname="top-blank-rect-white.svg">
  <defs
     id="defs4796" />
  <sodipodi:namedview
     id="base"
     pagecolor="#ffffff"
     bordercolor="#666666"
     borderopacity="1.0"
     inkscape:pageopacity="0.0"
     inkscape:pageshadow="2"
     inkscape:zoom="1.460108"
     inkscape:cx="313.94617"
     inkscape:cy="245.49529"
     inkscape:document-units="mm"
     inkscape:current-layer="layer1"
     showgrid="false"
     showguides="true"
     inkscape:guide-bbox="true"
     inkscape:window-width="2359"
     inkscape:window-height="1914"
     inkscape:window-x="3559"
     inkscape:window-y="70"
     inkscape:window-maximized="0">
    <sodipodi:guide
       position="-267.61959,-259.68295"
       orientation="1,0"
       id="guide5458"
       inkscape:locked="false" />
  </sodipodi:namedview>
  <metadata
     id="metadata4799">
    <rdf:RDF>
      <cc:Work
         rdf:about="">
        <dc:format>image/svg+xml</dc:format>
        <dc:type
           rdf:resource="http://purl.org/dc/dcmitype/StillImage" />
        <dc:title></dc:title>
      </cc:Work>
    </rdf:RDF>
  </metadata>
  <g
     inkscape:label="Layer 1"
     inkscape:groupmode="layer"
     id="layer1"
     transform="translate(-21.935075,-100.84356)">
    <path
       style="color:#000000;font-style:normal;font-variant:normal;font-weight:normal;font-stretch:normal;font-size:medium;line-height:normal;font-family:sans-serif;font-variant-ligatures:normal;font-variant-position:normal;font-variant-caps:normal;font-variant-numeric:normal;font-variant-alternates:normal;font-feature-settings:normal;text-indent:0;text-align:start;text-decoration:none;text-decoration-line:none;text-decoration-style:solid;text-decoration-color:#000000;letter-spacing:normal;word-spacing:normal;text-transform:none;writing-mode:lr-tb;direction:ltr;text-orientation:mixed;dominant-baseline:auto;baseline-shift:baseline;text-anchor:start;white-space:normal;shape-padding:0;clip-rule:nonzero;display:inline;overflow:visible;visibility:visible;opacity:1;isolation:auto;mix-blend-mode:normal;color-interpolation:sRGB;color-interpolation-filters:linearRGB;solid-color:#000000;solid-opacity:1;vector-effect:none;fill:#ffffff;fill-opacity:0.85511363;fill-rule:nonzero;stroke:none;stroke-width:2.39937615;stroke-linecap:butt;stroke-linejoin:round;stroke-miterlimit:0;stroke-dasharray:none;stroke-dashoffset:0;stroke-opacity:1;paint-order:normal;color-rendering:auto;image-rendering:auto;shape-rendering:auto;text-rendering:auto;enable-background:accumulate"
       d="m 53.403535,100.84356 h -19.61877 c -6.53913,0 -11.84969,3.75908 -11.84969,8.3878 v 95.8348 c 0,4.62872 5.31056,8.3878 11.84969,8.3878 H 190.73271 c 6.53914,0 11.84969,-3.75908 11.84969,-8.3878 v -95.8348 c 0,-4.62872 -5.31055,-8.3878 -11.84969,-8.3878 0,0 -13.07918,0 -19.61878,0 v 2.12593 c 6.5396,0 19.61878,0 19.61878,0 4.92748,0 8.84633,2.77396 8.84633,6.26187 v 95.8348 c 0,3.48791 -3.91885,6.26187 -8.84633,6.26187 H 33.784765 c -4.92746,0 -8.84632,-2.77396 -8.84632,-6.26187 v -95.8348 c 0,-3.48791 3.91886,-6.26187 8.84632,-6.26187 h 19.61877 z"
       id="rect5460"
       inkscape:connector-curvature="0"
       sodipodi:nodetypes="cssssssssccsssssssscc" />
  </g>
</svg>
